%YAML 1.1
%TAG !u! tag:unity3d.com,2011:
--- !u!29 &1
OcclusionCullingSettings:
  m_ObjectHideFlags: 0
  serializedVersion: 2
  m_OcclusionBakeSettings:
    smallestOccluder: 5
    smallestHole: 0.25
    backfaceThreshold: 100
  m_SceneGUID: 00000000000000000000000000000000
  m_OcclusionCullingData: {fileID: 0}
--- !u!104 &2
RenderSettings:
  m_ObjectHideFlags: 0
  serializedVersion: 9
  m_Fog: 0
  m_FogColor: {r: 0.5, g: 0.5, b: 0.5, a: 1}
  m_FogMode: 3
  m_FogDensity: 0.01
  m_LinearFogStart: 0
  m_LinearFogEnd: 300
  m_AmbientSkyColor: {r: 0.212, g: 0.227, b: 0.259, a: 1}
  m_AmbientEquatorColor: {r: 0.114, g: 0.125, b: 0.133, a: 1}
  m_AmbientGroundColor: {r: 0.047, g: 0.043, b: 0.035, a: 1}
  m_AmbientIntensity: 1
  m_AmbientMode: 0
  m_SubtractiveShadowColor: {r: 0.42, g: 0.478, b: 0.627, a: 1}
  m_SkyboxMaterial: {fileID: 10304, guid: 0000000000000000f000000000000000, type: 0}
  m_HaloStrength: 0.5
  m_FlareStrength: 1
  m_FlareFadeSpeed: 3
  m_HaloTexture: {fileID: 0}
  m_SpotCookie: {fileID: 10001, guid: 0000000000000000e000000000000000, type: 0}
  m_DefaultReflectionMode: 0
  m_DefaultReflectionResolution: 128
  m_ReflectionBounces: 1
  m_ReflectionIntensity: 1
  m_CustomReflection: {fileID: 0}
  m_Sun: {fileID: 0}
  m_IndirectSpecularColor: {r: 0.44657826, g: 0.49641263, b: 0.57481676, a: 1}
  m_UseRadianceAmbientProbe: 0
--- !u!157 &3
LightmapSettings:
  m_ObjectHideFlags: 0
  serializedVersion: 11
  m_GIWorkflowMode: 0
  m_GISettings:
    serializedVersion: 2
    m_BounceScale: 1
    m_IndirectOutputScale: 1
    m_AlbedoBoost: 1
    m_EnvironmentLightingMode: 0
    m_EnableBakedLightmaps: 1
    m_EnableRealtimeLightmaps: 1
  m_LightmapEditorSettings:
    serializedVersion: 12
    m_Resolution: 2
    m_BakeResolution: 40
    m_AtlasSize: 1024
    m_AO: 0
    m_AOMaxDistance: 1
    m_CompAOExponent: 1
    m_CompAOExponentDirect: 0
    m_ExtractAmbientOcclusion: 0
    m_Padding: 2
    m_LightmapParameters: {fileID: 0}
    m_LightmapsBakeMode: 1
    m_TextureCompression: 1
    m_FinalGather: 0
    m_FinalGatherFiltering: 1
    m_FinalGatherRayCount: 256
    m_ReflectionCompression: 2
    m_MixedBakeMode: 2
    m_BakeBackend: 0
    m_PVRSampling: 1
    m_PVRDirectSampleCount: 32
    m_PVRSampleCount: 500
    m_PVRBounces: 2
    m_PVREnvironmentSampleCount: 500
    m_PVREnvironmentReferencePointCount: 2048
    m_PVRFilteringMode: 2
    m_PVRDenoiserTypeDirect: 0
    m_PVRDenoiserTypeIndirect: 0
    m_PVRDenoiserTypeAO: 0
    m_PVRFilterTypeDirect: 0
    m_PVRFilterTypeIndirect: 0
    m_PVRFilterTypeAO: 0
    m_PVREnvironmentMIS: 0
    m_PVRCulling: 1
    m_PVRFilteringGaussRadiusDirect: 1
    m_PVRFilteringGaussRadiusIndirect: 5
    m_PVRFilteringGaussRadiusAO: 2
    m_PVRFilteringAtrousPositionSigmaDirect: 0.5
    m_PVRFilteringAtrousPositionSigmaIndirect: 2
    m_PVRFilteringAtrousPositionSigmaAO: 1
    m_ExportTrainingData: 0
    m_TrainingDataDestination: TrainingData
  m_LightingDataAsset: {fileID: 0}
  m_UseShadowmask: 1
--- !u!196 &4
NavMeshSettings:
  serializedVersion: 2
  m_ObjectHideFlags: 0
  m_BuildSettings:
    serializedVersion: 2
    agentTypeID: 0
    agentRadius: 0.5
    agentHeight: 2
    agentSlope: 45
    agentClimb: 0.4
    ledgeDropHeight: 0
    maxJumpAcrossDistance: 0
    minRegionArea: 2
    manualCellSize: 0
    cellSize: 0.16666667
    manualTileSize: 0
    tileSize: 256
    accuratePlacement: 0
    debug:
      m_Flags: 0
  m_NavMeshData: {fileID: 0}
--- !u!1 &1240612041
GameObject:
  m_ObjectHideFlags: 0
  m_CorrespondingSourceObject: {fileID: 0}
  m_PrefabInstance: {fileID: 0}
  m_PrefabAsset: {fileID: 0}
  serializedVersion: 6
  m_Component:
  - component: {fileID: 1240612043}
  - component: {fileID: 1240612042}
  m_Layer: 0
  m_Name: Directional Light
  m_TagString: Untagged
  m_Icon: {fileID: 0}
  m_NavMeshLayer: 0
  m_StaticEditorFlags: 0
  m_IsActive: 1
--- !u!108 &1240612042
Light:
  m_ObjectHideFlags: 0
  m_CorrespondingSourceObject: {fileID: 0}
  m_PrefabInstance: {fileID: 0}
  m_PrefabAsset: {fileID: 0}
  m_GameObject: {fileID: 1240612041}
  m_Enabled: 1
  serializedVersion: 9
  m_Type: 1
  m_Color: {r: 1, g: 0.95686275, b: 0.8392157, a: 1}
  m_Intensity: 1
  m_Range: 10
  m_SpotAngle: 30
  m_InnerSpotAngle: 21.80208
  m_CookieSize: 10
  m_Shadows:
    m_Type: 2
    m_Resolution: -1
    m_CustomResolution: -1
    m_Strength: 1
    m_Bias: 0.05
    m_NormalBias: 0.4
    m_NearPlane: 0.2
    m_CullingMatrixOverride:
      e00: 1
      e01: 0
      e02: 0
      e03: 0
      e10: 0
      e11: 1
      e12: 0
      e13: 0
      e20: 0
      e21: 0
      e22: 1
      e23: 0
      e30: 0
      e31: 0
      e32: 0
      e33: 1
    m_UseCullingMatrixOverride: 0
  m_Cookie: {fileID: 0}
  m_DrawHalo: 0
  m_Flare: {fileID: 0}
  m_RenderMode: 0
  m_CullingMask:
    serializedVersion: 2
    m_Bits: 4294967295
  m_RenderingLayerMask: 1
  m_Lightmapping: 4
  m_LightShadowCasterMode: 0
  m_AreaSize: {x: 1, y: 1}
  m_BounceIntensity: 1
  m_ColorTemperature: 6570
  m_UseColorTemperature: 0
  m_BoundingSphereOverride: {x: 0, y: 0, z: 0, w: 0}
  m_UseBoundingSphereOverride: 0
  m_ShadowRadius: 0
  m_ShadowAngle: 0
--- !u!4 &1240612043
Transform:
  m_ObjectHideFlags: 0
  m_CorrespondingSourceObject: {fileID: 0}
  m_PrefabInstance: {fileID: 0}
  m_PrefabAsset: {fileID: 0}
  m_GameObject: {fileID: 1240612041}
  m_LocalRotation: {x: 0.40821788, y: -0.23456968, z: 0.10938163, w: 0.8754261}
  m_LocalPosition: {x: 0, y: 3, z: 0}
  m_LocalScale: {x: 1, y: 1, z: 1}
  m_Children: []
  m_Father: {fileID: 0}
  m_RootOrder: 1
  m_LocalEulerAnglesHint: {x: 50, y: -30, z: 0}
--- !u!1 &1516529305
GameObject:
  m_ObjectHideFlags: 0
  m_CorrespondingSourceObject: {fileID: 0}
  m_PrefabInstance: {fileID: 0}
  m_PrefabAsset: {fileID: 0}
  serializedVersion: 6
  m_Component:
  - component: {fileID: 1516529310}
  - component: {fileID: 1516529309}
  - component: {fileID: 1516529308}
  - component: {fileID: 1516529307}
  - component: {fileID: 1516529306}
  m_Layer: 0
  m_Name: Main Camera
  m_TagString: MainCamera
  m_Icon: {fileID: 0}
  m_NavMeshLayer: 0
  m_StaticEditorFlags: 0
  m_IsActive: 1
--- !u!81 &1516529306
AudioListener:
  m_ObjectHideFlags: 0
  m_CorrespondingSourceObject: {fileID: 0}
  m_PrefabInstance: {fileID: 0}
  m_PrefabAsset: {fileID: 0}
  m_GameObject: {fileID: 1516529305}
  m_Enabled: 1
--- !u!124 &1516529307
Behaviour:
  m_ObjectHideFlags: 0
  m_CorrespondingSourceObject: {fileID: 0}
  m_PrefabInstance: {fileID: 0}
  m_PrefabAsset: {fileID: 0}
  m_GameObject: {fileID: 1516529305}
  m_Enabled: 1
--- !u!92 &1516529308
Behaviour:
  m_ObjectHideFlags: 0
  m_CorrespondingSourceObject: {fileID: 0}
  m_PrefabInstance: {fileID: 0}
  m_PrefabAsset: {fileID: 0}
  m_GameObject: {fileID: 1516529305}
  m_Enabled: 1
--- !u!20 &1516529309
Camera:
  m_ObjectHideFlags: 0
  m_CorrespondingSourceObject: {fileID: 0}
  m_PrefabInstance: {fileID: 0}
  m_PrefabAsset: {fileID: 0}
  m_GameObject: {fileID: 1516529305}
  m_Enabled: 1
  serializedVersion: 2
  m_ClearFlags: 2
  m_BackGroundColor: {r: 0.19215687, g: 0.3019608, b: 0.4745098, a: 0}
  m_projectionMatrixMode: 1
  m_GateFitMode: 2
  m_FOVAxisMode: 0
  m_SensorSize: {x: 36, y: 24}
  m_LensShift: {x: 0, y: 0}
  m_FocalLength: 50
  m_NormalizedViewPortRect:
    serializedVersion: 2
    x: 0
    y: 0
    width: 1
    height: 1
  near clip plane: 0.3
  far clip plane: 1000
  field of view: 15
  orthographic: 0
  orthographic size: 5
  m_Depth: -1
  m_CullingMask:
    serializedVersion: 2
    m_Bits: 4294967295
  m_RenderingPath: -1
  m_TargetTexture: {fileID: 0}
  m_TargetDisplay: 0
  m_TargetEye: 3
  m_HDR: 1
  m_AllowMSAA: 1
  m_AllowDynamicResolution: 0
  m_ForceIntoRT: 0
  m_OcclusionCulling: 1
  m_StereoConvergence: 10
  m_StereoSeparation: 0.022
--- !u!4 &1516529310
Transform:
  m_ObjectHideFlags: 0
  m_CorrespondingSourceObject: {fileID: 0}
  m_PrefabInstance: {fileID: 0}
  m_PrefabAsset: {fileID: 0}
  m_GameObject: {fileID: 1516529305}
  m_LocalRotation: {x: 0, y: 0, z: 0, w: 1}
  m_LocalPosition: {x: 0, y: 1, z: -10}
  m_LocalScale: {x: 1, y: 1, z: 1}
  m_Children: []
  m_Father: {fileID: 0}
  m_RootOrder: 0
  m_LocalEulerAnglesHint: {x: 0, y: 0, z: 0}
--- !u!1 &1540806638
GameObject:
  m_ObjectHideFlags: 0
  m_CorrespondingSourceObject: {fileID: 1647659675505650, guid: 79dae154df2563f4a96389b2a9f4e313,
    type: 2}
  m_PrefabInstance: {fileID: 0}
  m_PrefabAsset: {fileID: 0}
  serializedVersion: 6
  m_Component:
  - component: {fileID: 1540806644}
  - component: {fileID: 1540806643}
  - component: {fileID: 1540806641}
  - component: {fileID: 1540806642}
  - component: {fileID: 1540806640}
  - component: {fileID: 1540806639}
  m_Layer: 0
  m_Name: boxHead.v2
  m_TagString: Untagged
  m_Icon: {fileID: 0}
  m_NavMeshLayer: 0
  m_StaticEditorFlags: 0
  m_IsActive: 1
--- !u!114 &1540806639
MonoBehaviour:
  m_ObjectHideFlags: 0
  m_CorrespondingSourceObject: {fileID: 0}
  m_PrefabInstance: {fileID: 0}
  m_PrefabAsset: {fileID: 0}
  m_GameObject: {fileID: 1540806638}
  m_Enabled: 1
  m_EditorHideFlags: 0
  m_Script: {fileID: 11500000, guid: e2ee237a7d3f8ff42b3e51066248bf96, type: 3}
  m_Name: 
  m_EditorClassIdentifier: 
  DEFAULT_RATE: 11025
  sampleRate: 22050
  overrideSampleRate: 1
  isAutoStart: 1
  isDebug: 0
  isMuted: 1
  selectedMic: 
  linkWithSalsa: 1
  audioSrc: {fileID: 0}
--- !u!114 &1540806640
MonoBehaviour:
  m_ObjectHideFlags: 0
  m_CorrespondingSourceObject: {fileID: 0}
  m_PrefabInstance: {fileID: 0}
  m_PrefabAsset: {fileID: 0}
  m_GameObject: {fileID: 1540806638}
  m_Enabled: 1
  m_EditorHideFlags: 0
  m_Script: {fileID: 2069102741, guid: 21fe281538940584e84b6d5eedb3525e, type: 3}
  m_Name: 
  m_EditorClassIdentifier: 
  inspHeight: 150
  inspShowLipsync: 1
  inspShowEmote: 1
  inspShowEyes: 1
  inspShowHead: 1
  inspShowLids: 1
--- !u!82 &1540806641
AudioSource:
  m_ObjectHideFlags: 0
  m_CorrespondingSourceObject: {fileID: 0}
  m_PrefabInstance: {fileID: 0}
  m_PrefabAsset: {fileID: 0}
  m_GameObject: {fileID: 1540806638}
  m_Enabled: 1
  serializedVersion: 4
  OutputAudioMixerGroup: {fileID: 0}
  m_audioClip: {fileID: 0}
  m_PlayOnAwake: 0
  m_Volume: 1
  m_Pitch: 1
  Loop: 0
  Mute: 1
  Spatialize: 0
  SpatializePostEffects: 0
  Priority: 128
  DopplerLevel: 1
  MinDistance: 1
  MaxDistance: 500
  Pan2D: 0
  rolloffMode: 0
  BypassEffects: 0
  BypassListenerEffects: 0
  BypassReverbZones: 0
  rolloffCustomCurve:
    serializedVersion: 2
    m_Curve:
    - serializedVersion: 3
      time: 0
      value: 1
      inSlope: 0
      outSlope: 0
      tangentMode: 0
      weightedMode: 0
      inWeight: 0.33333334
      outWeight: 0.33333334
    - serializedVersion: 3
      time: 1
      value: 0
      inSlope: 0
      outSlope: 0
      tangentMode: 0
      weightedMode: 0
      inWeight: 0.33333334
      outWeight: 0.33333334
    m_PreInfinity: 2
    m_PostInfinity: 2
    m_RotationOrder: 4
  panLevelCustomCurve:
    serializedVersion: 2
    m_Curve:
    - serializedVersion: 3
      time: 0
      value: 0
      inSlope: 0
      outSlope: 0
      tangentMode: 0
      weightedMode: 0
      inWeight: 0.33333334
      outWeight: 0.33333334
    m_PreInfinity: 2
    m_PostInfinity: 2
    m_RotationOrder: 0
  spreadCustomCurve:
    serializedVersion: 2
    m_Curve:
    - serializedVersion: 3
      time: 0
      value: 0
      inSlope: 0
      outSlope: 0
      tangentMode: 0
      weightedMode: 0
      inWeight: 0.33333334
      outWeight: 0.33333334
    m_PreInfinity: 2
    m_PostInfinity: 2
    m_RotationOrder: 4
  reverbZoneMixCustomCurve:
    serializedVersion: 2
    m_Curve:
    - serializedVersion: 3
      time: 0
      value: 1
      inSlope: 0
      outSlope: 0
      tangentMode: 0
      weightedMode: 0
      inWeight: 0.33333334
      outWeight: 0.33333334
    m_PreInfinity: 2
    m_PostInfinity: 2
    m_RotationOrder: 0
--- !u!114 &1540806642
MonoBehaviour:
  m_ObjectHideFlags: 0
  m_CorrespondingSourceObject: {fileID: 0}
  m_PrefabInstance: {fileID: 0}
  m_PrefabAsset: {fileID: 0}
  m_GameObject: {fileID: 1540806638}
  m_Enabled: 1
  m_EditorHideFlags: 0
  m_Script: {fileID: -1091098677, guid: 21fe281538940584e84b6d5eedb3525e, type: 3}
  m_Name: 
  m_EditorClassIdentifier: 
  audioSrc: {fileID: 1540806641}
  waitForAudioSource: 0
  audioSourceWaitTarget: {fileID: 0}
  useExternalAnalysis: 0
  audioUpdateDelay: 0.08
  analysisValue: 0
  loCutoff: 0.045
  hiCutoff: 1
  playheadBias: 2800
  autoAdjustAnalysis: 1
  autoAdjustMicrophone: 1
  microphone: 
  silencePulseThreshold: 3
  queueProcessor: {fileID: 1540806640}
  visemes:
  - expData:
      name: saySmall
      components:
      - name: saySmall component
        controlType: 0
        lipsyncControlType: 0
        emoteControlType: 0
        eyesControlType: 1
        durationDelay: 0
        durationOn: 0.08
        durationHold: 0
        durationOff: 0.06
        isSmoothDisable: 0
        isPersistent: 0
        expressionType: 0
        easing: 4
        expressionHandler: 0
        isAnimatorControlled: 0
        useOffset: 0
        inspFoldout: 1
        enabled: 1
        isBonePreviewUpdated: 0
        frac: 1
      controllerVars:
      - bone: {fileID: 0}
        baseTform:
          pos: {x: 0, y: 0, z: 0}
          rot: {x: 0, y: 0, z: 0, w: 0}
          scale: {x: 0, y: 0, z: 0}
        startTform:
          pos: {x: 0, y: 0, z: 0}
          rot: {x: 0, y: 0, z: 0, w: 0}
          scale: {x: 0, y: 0, z: 0}
        endTform:
          pos: {x: 0, y: 0, z: 0}
          rot: {x: 0, y: 0, z: 0, w: 0}
          scale: {x: 0, y: 0, z: 0}
        fracPos: 1
        fracRot: 1
        fracScl: 1
        inspIsSetStart: 0
        inspIsSetEnd: 0
        umaUepProxy: {fileID: 0}
        uepAmount: 0
        smr: {fileID: 1540806643}
        blendIndex: 1
        minShape: 0
        maxShape: 1
        eyeGizmo: {fileID: 0}
        animator: {fileID: 0}
        isTriggerParameterBiDirectional: 0
        eventIdentityName: 
        onState: 2
        display2dImage: 0
        isRestNull: 0
        spriteRenderer: {fileID: 0}
        sprites: []
        uguiRenderer: {fileID: 0}
        textureRenderer: {fileID: 0}
        materialIndex: 0
        backupTextures: []
        textures: []
        materialRenderer: {fileID: 0}
        materials: []
      inspFoldout: 1
      previewDisplayMode: 0
      collectionExpand: 0
    trigger: 0
  - expData:
      name: sayMedium
      components:
      - name: sayMedium component
        controlType: 0
        lipsyncControlType: 0
        emoteControlType: 0
        eyesControlType: 1
        durationDelay: 0
        durationOn: 0.08
        durationHold: 0
        durationOff: 0.06
        isSmoothDisable: 0
        isPersistent: 0
        expressionType: 0
        easing: 4
        expressionHandler: 0
        isAnimatorControlled: 0
        useOffset: 0
        inspFoldout: 1
        enabled: 1
        isBonePreviewUpdated: 0
        frac: 1
      controllerVars:
      - bone: {fileID: 0}
        baseTform:
          pos: {x: 0, y: 0, z: 0}
          rot: {x: 0, y: 0, z: 0, w: 0}
          scale: {x: 0, y: 0, z: 0}
        startTform:
          pos: {x: 0, y: 0, z: 0}
          rot: {x: 0, y: 0, z: 0, w: 0}
          scale: {x: 0, y: 0, z: 0}
        endTform:
          pos: {x: 0, y: 0, z: 0}
          rot: {x: 0, y: 0, z: 0, w: 0}
          scale: {x: 0, y: 0, z: 0}
        fracPos: 1
        fracRot: 1
        fracScl: 1
        inspIsSetStart: 0
        inspIsSetEnd: 0
        umaUepProxy: {fileID: 0}
        uepAmount: 0
        smr: {fileID: 1540806643}
        blendIndex: 2
        minShape: 0
        maxShape: 1
        eyeGizmo: {fileID: 0}
        animator: {fileID: 0}
        isTriggerParameterBiDirectional: 0
        eventIdentityName: 
        onState: 2
        display2dImage: 0
        isRestNull: 0
        spriteRenderer: {fileID: 0}
        sprites: []
        uguiRenderer: {fileID: 0}
        textureRenderer: {fileID: 0}
        materialIndex: 0
        backupTextures: []
        textures: []
        materialRenderer: {fileID: 0}
        materials: []
      inspFoldout: 1
      previewDisplayMode: 0
      collectionExpand: 0
    trigger: 0.33333334
  - expData:
      name: sayLarge
      components:
      - name: sayLarge component
        controlType: 0
        lipsyncControlType: 0
        emoteControlType: 0
        eyesControlType: 1
        durationDelay: 0
        durationOn: 0.08
        durationHold: 0
        durationOff: 0.06
        isSmoothDisable: 0
        isPersistent: 0
        expressionType: 0
        easing: 4
        expressionHandler: 0
        isAnimatorControlled: 0
        useOffset: 0
        inspFoldout: 1
        enabled: 1
        isBonePreviewUpdated: 0
        frac: 1
      controllerVars:
      - bone: {fileID: 0}
        baseTform:
          pos: {x: 0, y: 0, z: 0}
          rot: {x: 0, y: 0, z: 0, w: 0}
          scale: {x: 0, y: 0, z: 0}
        startTform:
          pos: {x: 0, y: 0, z: 0}
          rot: {x: 0, y: 0, z: 0, w: 0}
          scale: {x: 0, y: 0, z: 0}
        endTform:
          pos: {x: 0, y: 0, z: 0}
          rot: {x: 0, y: 0, z: 0, w: 0}
          scale: {x: 0, y: 0, z: 0}
        fracPos: 1
        fracRot: 1
        fracScl: 1
        inspIsSetStart: 0
        inspIsSetEnd: 0
        umaUepProxy: {fileID: 0}
        uepAmount: 0
        smr: {fileID: 1540806643}
        blendIndex: 3
        minShape: 0
        maxShape: 1
        eyeGizmo: {fileID: 0}
        animator: {fileID: 0}
        isTriggerParameterBiDirectional: 0
        eventIdentityName: 
        onState: 2
        display2dImage: 0
        isRestNull: 0
        spriteRenderer: {fileID: 0}
        sprites: []
        uguiRenderer: {fileID: 0}
        textureRenderer: {fileID: 0}
        materialIndex: 0
        backupTextures: []
        textures: []
        materialRenderer: {fileID: 0}
        materials: []
      inspFoldout: 1
      previewDisplayMode: 0
      collectionExpand: 0
    trigger: 0.6666667
  sampleSize: 512
  emoter: {fileID: 0}
  emphasizerTrigger: 0.7
  scaleExternalAnalysis: 0
  useAdvDyn: 1
  advDynPrimaryBias: 0.5
  useAdvDynJitter: 1
  advDynJitterAmount: 0.1
  advDynJitterProb: 0.2
  useAdvDynSecondaryMix: 0
  advDynSecondaryMix: 0.2
  useAdvDynRollback: 0
  advDynRollback: 0.3
  globalFrac: 1
  dynaVariOn: 0.08
  dynaVariHold: 0
  dynaVariOff: 0.06
  dynaVariEasing: 4
  usePersistence: 0
  useMergeBack: 0
  useTimingsOverride: 0
  globalDurON: 0.08
  globalDurOFF: 0.06
  globalDurOffBalance: 0
  originalUpdateDelay: 0
  globalNuanceBalance: 0
  useEasingOverride: 0
  globalEasing: 4
  configReady: 1
  inspStateFoldoutProcessing: 0
  inspStateFoldoutSettings: 1
  inspStateFoldoutVisemes: 0
  inspCollectionDisplayMode: 0
  inspAnalysisDisplay: 0
  inspOverrideSecondaryMix: 1
  inspDetailedTimingAdjustments: 0
--- !u!137 &1540806643
SkinnedMeshRenderer:
  m_ObjectHideFlags: 0
  m_CorrespondingSourceObject: {fileID: 137983618539535916, guid: 79dae154df2563f4a96389b2a9f4e313,
    type: 2}
  m_PrefabInstance: {fileID: 0}
  m_PrefabAsset: {fileID: 0}
  m_GameObject: {fileID: 1540806638}
  m_Enabled: 1
  m_CastShadows: 1
  m_ReceiveShadows: 1
  m_DynamicOccludee: 1
  m_MotionVectors: 1
  m_LightProbeUsage: 1
  m_ReflectionProbeUsage: 1
  m_RenderingLayerMask: 1
  m_RendererPriority: 0
  m_Materials:
  - {fileID: 2100000, guid: e50fd4d1977e2de418d83dccaec81272, type: 2}
  m_StaticBatchInfo:
    firstSubMesh: 0
    subMeshCount: 0
  m_StaticBatchRoot: {fileID: 0}
  m_ProbeAnchor: {fileID: 0}
  m_LightProbeVolumeOverride: {fileID: 0}
  m_ScaleInLightmap: 1
  m_ReceiveGI: 1
  m_PreserveUVs: 0
  m_IgnoreNormalsForChartDetection: 0
  m_ImportantGI: 0
  m_StitchLightmapSeams: 1
  m_SelectedEditorRenderState: 3
  m_MinimumChartSize: 4
  m_AutoUVMaxDistance: 0.5
  m_AutoUVMaxAngle: 89
  m_LightmapParameters: {fileID: 0}
  m_SortingLayerID: 0
  m_SortingLayer: 0
  m_SortingOrder: 0
  serializedVersion: 2
  m_Quality: 0
  m_UpdateWhenOffscreen: 1
  m_SkinnedMotionVectors: 1
  m_Mesh: {fileID: 4300000, guid: 2ca10c22b135faf419bbb2d6cba14789, type: 3}
  m_Bones: []
  m_BlendShapeWeights: []
  m_RootBone: {fileID: 0}
  m_AABB:
    m_Center: {x: 0, y: 1.186865, z: 0.258873}
    m_Extent: {x: 1, y: 1.186865, z: 1.258873}
  m_DirtyAABB: 0
--- !u!4 &1540806644
Transform:
  m_ObjectHideFlags: 0
  m_CorrespondingSourceObject: {fileID: 4015646454769268, guid: 79dae154df2563f4a96389b2a9f4e313,
    type: 2}
  m_PrefabInstance: {fileID: 0}
  m_PrefabAsset: {fileID: 0}
  m_GameObject: {fileID: 1540806638}
  m_LocalRotation: {x: 0, y: 1, z: 0, w: 0}
  m_LocalPosition: {x: -0, y: 0, z: 0}
  m_LocalScale: {x: 1, y: 1, z: 1}
  m_Children: []
  m_Father: {fileID: 0}
  m_RootOrder: 2
  m_LocalEulerAnglesHint: {x: 0, y: 180, z: 0}
